…
all_cities_glm
```

    ## # A tibble: 188 x 7
    ##    city_state    term            log_OR    OR   p.value conf.low conf.high
    ##    <chr>         <chr>            <dbl> <dbl>     <dbl>    <dbl>     <dbl>
    ##  1 Albuquerque,~ (Intercept)    1.23    3.43    1.31e-3    1.62      7.27 
    ##  2 Albuquerque,~ victim_age    -0.0230  0.977   1.08e-3    0.964     0.991
    ##  3 Albuquerque,~ victim_raceN~ -0.299   0.741   2.38e-1    0.451     1.22 
    ##  4 Albuquerque,~ victim_sexMa~  0.455   1.58    1.15e-1    0.895     2.77 
    ##  5 Atlanta, GA   (Intercept)    1.15    3.17    1.43e-3    1.56      6.43 
    ##  6 Atlanta, GA   victim_age    -0.0118  0.988   9.81e-3    0.979     0.997
    ##  7 Atlanta, GA   victim_raceN~ -0.284   0.753   3.17e-1    0.432     1.31 
    ##  8 Atlanta, GA   victim_sexMa~ -0.0101  0.990   9.58e-1    0.679     1.44 
    ##  9 Baltimore, MD (Intercept)    1.19    3.27    4.30e-7    2.07      5.19 
    ## 10 Baltimore, MD victim_age    -0.00699 0.993   3.22e-2    0.987     0.999
    ## # ... with 178 more rows
…
| term        |  estimate | p.value |
| :---------- | --------: | ------: |
| (Intercept) |  3221.086 |   0.000 |
| fincome     |     0.836 |   0.007 |
| mrace2      | \-298.944 |   0.000 |
| mrace3      | \-117.732 |   0.118 |
| mrace4      | \-195.690 |   0.000 |

``` r
modelr::add_residuals(mod_inc_mrace, lm_inc_mrace)
```

    ## # A tibble: 4,342 x 4
    ##      bwt fincome mrace  resid
    ##    <int>   <int> <fct>  <dbl>
    ##  1  3629      35 1      379. 
    ##  2  3062      65 2       85.5
    ##  3  3345      85 1       52.9
    ##  4  3062      55 1     -205. 
    ##  5  3374       5 1      149. 
    ##  6  3374      55 1      107. 
    ##  7  2523      96 2     -479. 
    ##  8  2778       5 1     -447. 
    ##  9  3515      85 1      223. 
    ## 10  3459      75 2      474. 
    ## # ... with 4,332 more rows

``` r
modelr::add_predictions(mod_inc_mrace, lm_inc_mrace)
```

    ## # A tibble: 4,342 x 4
    ##      bwt fincome mrace  pred
    ##    <int>   <int> <fct> <dbl>
    ##  1  3629      35 1     3250.
    ##  2  3062      65 2     2976.
    ##  3  3345      85 1     3292.
    ##  4  3062      55 1     3267.
    ##  5  3374       5 1     3225.
    ##  6  3374      55 1     3267.
    ##  7  2523      96 2     3002.
    ##  8  2778       5 1     3225.
    ##  9  3515      85 1     3292.
    ## 10  3459      75 2     2985.
    ## # ... with 4,332 more rows
…
| term        |   estimate | p.value |
| :---------- | ---------: | ------: |
| (Intercept) | \-4347.667 |       0 |
| blength     |    128.556 |       0 |
| gaweeks     |     27.047 |       0 |

``` r
modelr::add_residuals(mod_len_age, lm_len_age)
```

    ## # A tibble: 4,342 x 4
    ##      bwt blength gaweeks  resid
    ##    <int>   <int>   <dbl>  <dbl>
    ##  1  3629      51    39.9  341. 
    ##  2  3062      48    25.9  538. 
    ##  3  3345      50    39.9  186. 
    ##  4  3062      52    40   -357. 
    ##  5  3374      52    41.6  -88.4
    ##  6  3374      52    40.7  -64.0
    ##  7  2523      46    40.3 -133. 
    ##  8  2778      49    37.4 -185. 
    ##  9  3515      52    40.3   87.8
    ## 10  3459      50    40.7  278. 
    ## # ... with 4,332 more rows

``` r
modelr::add_predictions(mod_len_age, lm_len_age)
```

    ## # A tibble: 4,342 x 4
    ##      bwt blength gaweeks  pred
    ##    <int>   <int>   <dbl> <dbl>
    ##  1  3629      51    39.9 3288.
    ##  2  3062      48    25.9 2524.
    ##  3  3345      50    39.9 3159.
    ##  4  3062      52    40   3419.
    ##  5  3374      52    41.6 3462.
    ##  6  3374      52    40.7 3438.
    ##  7  2523      46    40.3 2656.
    ##  8  2778      49    37.4 2963.
    ##  9  3515      52    40.3 3427.
    ## 10  3459      50    40.7 3181.
    ## # ... with 4,332 more rows
…
| term        |   estimate | p.value |
| :---------- | ---------: | ------: |
| (Intercept) | \-6121.391 |       0 |
| bhead       |    148.175 |       0 |
| blength     |     85.016 |       0 |
| babysex2    |     41.086 |       0 |

``` r
modelr::add_residuals(mod_hc_len_sex, lm_hc_len_sex)
```

    ## # A tibble: 4,342 x 5
    ##      bwt bhead blength babysex   resid
    ##    <int> <int>   <int> <fct>     <dbl>
    ##  1  3629    34      51 2        336.  
    ##  2  3062    34      48 1         64.7 
    ##  3  3345    36      50 2       -160.  
    ##  4  3062    34      52 1       -275.  
    ##  5  3374    34      52 2         -4.48
    ##  6  3374    33      52 1        185.  
    ##  7  2523    33      46 2       -197.  
    ##  8  2778    33      49 2       -197.  
    ##  9  3515    36      52 1       -119.  
    ## 10  3459    33      50 1        440.  
    ## # ... with 4,332 more rows

``` r
modelr::add_predictions(mod_hc_len_sex, lm_hc_len_sex)
```

    ## # A tibble: 4,342 x 5
    ##      bwt bhead blength babysex  pred
    ##    <int> <int>   <int> <fct>   <dbl>
    ##  1  3629    34      51 2       3293.
    ##  2  3062    34      48 1       2997.
    ##  3  3345    36      50 2       3505.
    ##  4  3062    34      52 1       3337.
    ##  5  3374    34      52 2       3378.
    ##  6  3374    33      52 1       3189.
    ##  7  2523    33      46 2       2720.
    ##  8  2778    33      49 2       2975.
    ##  9  3515    36      52 1       3634.
    ## 10  3459    33      50 1       3019.
    ## # ... with 4,332 more rows
